{
  "prefix": "fn animation animate",
  "body": [
    "# Usage: animate frames_array interval",
    "function animate () {",
    "\tlocal frames=(\"$@\")",
    "\t((last_index=\\${#frames[@]} - 1))",
    "\tlocal interval=\\${frames[last_index]}",
    "\tunset frames[last_index]",
    "",
    "\t# Comment out next two lines if you are using CTRL+C event handler.",
    "${1:\ttrap 'tput cnorm; echo' EXIT\n\ttrap 'exit 127' HUP INT TERM}\n",
    "\ttput civis # hide cursor",
    "\ttput sc # save cursor position",
    "",
    "\twhile true; do",
    "\t\tfor frame in \"\\${frames[@]}\"; do",
    "\t\t\ttput rc # restore cursor position",
    "\t\t\techo \"\\$frame\"",
    "\t\t\tsleep \"\\$interval\"",
    "\t\tdone",
    "\tdone",
    "}\n${0:}"
  ],
  "description": "Animate frames of animation"
}