{
  "prefix": "fn math average",
  "body": [
    "function average () {",
    "\tlocal result=0",
    "\tfor item in \\$@; do",
    "\t\t((result += item))",
    "\tdone",
    "\techo \\$((result / \\$#))",
    "}\n"
  ],
  "description": "Calculate average of given integers"
}