{
  "prefix": "math 0.00",
  "body": "${1:result}=`echo \"scale=${2|0,1,2,3,4,5,6,7,8,9|};(${3:\\$var1} ${4|+,-,*,/,^|} ${5:\\$var2})\" | bc`\n",
  "description": "math operations with up to scale decimal places precision"
}