{
  "prefix": "http download",
  "body": [
    "curl --request ${1|GET,POST|} -sL \\",
    "\t--user-agent '${2|Shellman,Mozilla/5.0 (Windows NT 10.0; Win64; x64) AppleWebKit/537.36 (KHTML\\, like Gecko) Chrome/58.0.3029.110 Safari/537.36,Mozilla/5.0 (Windows NT 10.0; Win64; x64; rv:53.0) Gecko/20100101 Firefox/53.0,Mozilla/5.0 (Windows NT 10.0; Win64; x64) AppleWebKit/537.36 (KHTML\\, like Gecko) Chrome/51.0.2704.79 Safari/537.36 Edge/14.14393|}' \\",
    "\t--output '${3:/path/to/file}' \\",
    "\t--url '${4:http://example.com/file.zip}'\n"
  ],
  "description": "Download from url and save to /path/to/file, using curl"
}